{
  "uuid": "1c9bb534-3b3b-46f7-850e-0e30d0752ae9", //change this to "unique key" string. Could be UUID, e-mail, or whatever.
  "TemplateConiguration": "system", // review?
  //"TemplateID": "" //JWN added to account for server-stored templates (user-defined or system-defined)
  "Template Type": "Person", //review (basically "category" so why not use that term?
  "TemplateParent": "Living", //review (one-step up parent, or prime category?
  "DisplayName": "John Newquist", //review -
  "Attributes": [ //renamed from "Properties"
    { "FirstName": "John" },
    { "MiddleName": "Waldo" },
    { "LastName": "Newquist" }
  ],
  "TemplateMembers": [ "has address", "has email" ], //needs review, should probably be removed?
  "ChildObjects": [ //Renamed from "RelatedObjects"
    {
      "type": "EmailAddress",
      "desc": "has_email",
      "Properties": { "email": "jnewquist@dsi-digital.com" },
      "rel_Properties": {
        "since": 2004,
        "purpose": "work"
      }
    },
    {
      "type": "Phone",
      "desc": "has_phone",
      "Properties": { "phone": "7703754581" },
      "rel_Properties": { "purpose": "work" }
    }
  ],
  "RelatedInfo": [
    {
      "relationshipType": "works_for",
      "displayName": "Employer",
      "relationshipProperties": {
        "since": 2004,
        "jobTitle": "Director, Software Development"
      },
      "objectUUID": "7b815b46-d87c-4487-9187-62db7c65d686",
      "Template Type": "Company",
      "TemplateParent": "Groupings",
      "displayAttributes": {
        "companyName": "DSi Digital, LLC"
      }
    }
  ],
  "AvailableObjects": [], //template would be filled out on front end before sending CRUD request //JWN need to understand this better
  "LockedObjects": [] //during CRUD //JWN again need to understand this better
}